^C:\USERS\BRYAN\IOTAHOE\BITSET-BENCHMARK\WORKER\BUILD\CMAKEFILES\568636D9AFE0F2DD45228863A78254E6\GENERATE.STAMP.RULE
setlocal
"C:\Program Files\CMake\bin\cmake.exe" -SC:/Users/bryan/iotahoe/bitset-benchmark/worker -BC:/Users/bryan/iotahoe/bitset-benchmark/worker/build --check-stamp-list CMakeFiles/generate.stamp.list --vs-solution-file C:/Users/bryan/iotahoe/bitset-benchmark/worker/build/worker.sln
if %errorlevel% neq 0 goto :cmEnd
:cmEnd
endlocal & call :cmErrorLevel %errorlevel% & goto :cmDone
:cmErrorLevel
exit /b %1
:cmDone
if %errorlevel% neq 0 goto :VCEnd
