^C:\USERS\BRYAN\IOTAHOE\BITSET-BENCHMARK\WORKER\CMAKELISTS.TXT
setlocal
"C:\Program Files\CMake\bin\cmake.exe" -SC:/Users/bryan/iotahoe/bitset-benchmark/worker -BC:/Users/bryan/iotahoe/bitset-benchmark/worker/build --check-stamp-file C:/Users/bryan/iotahoe/bitset-benchmark/worker/build/CMakeFiles/generate.stamp
if %errorlevel% neq 0 goto :cmEnd
:cmEnd
endlocal & call :cmErrorLevel %errorlevel% & goto :cmDone
:cmErrorLevel
exit /b %1
:cmDone
if %errorlevel% neq 0 goto :VCEnd
